Django>=1.4.5,<1.5
-e git+https://github.com/peppelorum/Django-genericdropdown.git#egg=django-genericdropdown
django-tastypie>=0.9.15,<0.10
django-registration>=1.0
django-braces>=1.0
logilab-astng>=0.23.1
logilab-common>=0.57.1
mimeparse>=0.1.3
python-dateutil>=1.5
python-ntlm>=1.0.1
pytz>=2012c
South>=0.8,<0.9
numpy>=1.6.2
scipy>=0.10.0
matplotlib>=1.0
